<?xml version="1.0" encoding="utf-8"?>
<!-- Generator: Adobe Illustrator 16.0.0, SVG Export Plug-In . SVG Version: 6.00 Build 0)  -->
<!DOCTYPE svg PUBLIC "-//W3C//DTD SVG 1.1//EN" "http://www.w3.org/Graphics/SVG/1.1/DTD/svg11.dtd">
<svg version="1.1" id="Layer_1" xmlns="http://www.w3.org/2000/svg" xmlns:xlink="http://www.w3.org/1999/xlink" x="0px" y="0px"
	 width="30.297px" height="29.039px" viewBox="0 0 30.297 29.039" enable-background="new 0 0 30.297 29.039" xml:space="preserve">
<g id="exit_mouseout">
	<polygon fill="#FFFFFF" points="0,29.039 10.473,14.082 0.438,0 9.816,0 14.957,7.984 20.371,0 29.395,0 19.551,13.754 
		30.297,29.039 20.863,29.039 14.957,20.043 8.996,29.039 	"/>
</g>
</svg>
